%YAML 1.1
%TAG !u! tag:unity3d.com,2011:
--- !u!1001 &4007818152388822236
PrefabInstance:
  m_ObjectHideFlags: 0
  serializedVersion: 2
  m_Modification:
    m_TransformParent: {fileID: 0}
    m_Modifications:
    - target: {fileID: 7020099518738830796, guid: c1066cea0c5f362448eb5d82759c103d,
        type: 3}
      propertyPath: isHoming
      value: 0
      objectReference: {fileID: 0}
    - target: {fileID: 8004892603165636155, guid: c1066cea0c5f362448eb5d82759c103d,
        type: 3}
      propertyPath: m_Name
      value: Arrow Projectile Blue
      objectReference: {fileID: 0}
    - target: {fileID: 8409833860297164557, guid: c1066cea0c5f362448eb5d82759c103d,
        type: 3}
      propertyPath: m_Parameters.colorGradient.key0.r
      value: 0.12517802
      objectReference: {fileID: 0}
    - target: {fileID: 8409833860297164557, guid: c1066cea0c5f362448eb5d82759c103d,
        type: 3}
      propertyPath: m_Parameters.colorGradient.key0.g
      value: 0.78744864
      objectReference: {fileID: 0}
    - target: {fileID: 8409833860297164557, guid: c1066cea0c5f362448eb5d82759c103d,
        type: 3}
      propertyPath: m_Parameters.colorGradient.key0.b
      value: 0.9150943
      objectReference: {fileID: 0}
    - target: {fileID: 8409833860297164557, guid: c1066cea0c5f362448eb5d82759c103d,
        type: 3}
      propertyPath: m_Parameters.colorGradient.ctime0
      value: 46838
      objectReference: {fileID: 0}
    - target: {fileID: 8409833860297164557, guid: c1066cea0c5f362448eb5d82759c103d,
        type: 3}
      propertyPath: m_Parameters.colorGradient.key1.a
      value: 0.3882353
      objectReference: {fileID: 0}
    - target: {fileID: 8613484020029049613, guid: c1066cea0c5f362448eb5d82759c103d,
        type: 3}
      propertyPath: m_LocalPosition.x
      value: 0
      objectReference: {fileID: 0}
    - target: {fileID: 8613484020029049613, guid: c1066cea0c5f362448eb5d82759c103d,
        type: 3}
      propertyPath: m_LocalPosition.y
      value: 0
      objectReference: {fileID: 0}
    - target: {fileID: 8613484020029049613, guid: c1066cea0c5f362448eb5d82759c103d,
        type: 3}
      propertyPath: m_LocalPosition.z
      value: 0
      objectReference: {fileID: 0}
    - target: {fileID: 8613484020029049613, guid: c1066cea0c5f362448eb5d82759c103d,
        type: 3}
      propertyPath: m_LocalRotation.x
      value: 0
      objectReference: {fileID: 0}
    - target: {fileID: 8613484020029049613, guid: c1066cea0c5f362448eb5d82759c103d,
        type: 3}
      propertyPath: m_LocalRotation.y
      value: 0
      objectReference: {fileID: 0}
    - target: {fileID: 8613484020029049613, guid: c1066cea0c5f362448eb5d82759c103d,
        type: 3}
      propertyPath: m_LocalRotation.z
      value: 0
      objectReference: {fileID: 0}
    - target: {fileID: 8613484020029049613, guid: c1066cea0c5f362448eb5d82759c103d,
        type: 3}
      propertyPath: m_LocalRotation.w
      value: 1
      objectReference: {fileID: 0}
    - target: {fileID: 8613484020029049613, guid: c1066cea0c5f362448eb5d82759c103d,
        type: 3}
      propertyPath: m_RootOrder
      value: 0
      objectReference: {fileID: 0}
    - target: {fileID: 8613484020029049613, guid: c1066cea0c5f362448eb5d82759c103d,
        type: 3}
      propertyPath: m_LocalEulerAnglesHint.x
      value: 0
      objectReference: {fileID: 0}
    - target: {fileID: 8613484020029049613, guid: c1066cea0c5f362448eb5d82759c103d,
        type: 3}
      propertyPath: m_LocalEulerAnglesHint.y
      value: 0
      objectReference: {fileID: 0}
    - target: {fileID: 8613484020029049613, guid: c1066cea0c5f362448eb5d82759c103d,
        type: 3}
      propertyPath: m_LocalEulerAnglesHint.z
      value: 0
      objectReference: {fileID: 0}
    m_RemovedComponents: []
  m_SourcePrefab: {fileID: 100100000, guid: c1066cea0c5f362448eb5d82759c103d, type: 3}
