%YAML 1.1
%TAG !u! tag:unity3d.com,2011:
--- !u!1001 &5128807068539780635
PrefabInstance:
  m_ObjectHideFlags: 0
  serializedVersion: 2
  m_Modification:
    m_TransformParent: {fileID: 8446736630700271762}
    m_Modifications:
    - target: {fileID: 142994, guid: d6389bfdb7e456640b3a45339aac60a4, type: 3}
      propertyPath: m_Name
      value: SM_Env_Flower_01
      objectReference: {fileID: 0}
    - target: {fileID: 493576, guid: d6389bfdb7e456640b3a45339aac60a4, type: 3}
      propertyPath: m_LocalPosition.x
      value: 0
      objectReference: {fileID: 0}
    - target: {fileID: 493576, guid: d6389bfdb7e456640b3a45339aac60a4, type: 3}
      propertyPath: m_LocalPosition.y
      value: 0
      objectReference: {fileID: 0}
    - target: {fileID: 493576, guid: d6389bfdb7e456640b3a45339aac60a4, type: 3}
      propertyPath: m_LocalPosition.z
      value: 0
      objectReference: {fileID: 0}
    - target: {fileID: 493576, guid: d6389bfdb7e456640b3a45339aac60a4, type: 3}
      propertyPath: m_LocalRotation.x
      value: 0
      objectReference: {fileID: 0}
    - target: {fileID: 493576, guid: d6389bfdb7e456640b3a45339aac60a4, type: 3}
      propertyPath: m_LocalRotation.y
      value: 0
      objectReference: {fileID: 0}
    - target: {fileID: 493576, guid: d6389bfdb7e456640b3a45339aac60a4, type: 3}
      propertyPath: m_LocalRotation.z
      value: 0
      objectReference: {fileID: 0}
    - target: {fileID: 493576, guid: d6389bfdb7e456640b3a45339aac60a4, type: 3}
      propertyPath: m_LocalRotation.w
      value: 1
      objectReference: {fileID: 0}
    - target: {fileID: 493576, guid: d6389bfdb7e456640b3a45339aac60a4, type: 3}
      propertyPath: m_RootOrder
      value: 0
      objectReference: {fileID: 0}
    - target: {fileID: 493576, guid: d6389bfdb7e456640b3a45339aac60a4, type: 3}
      propertyPath: m_LocalEulerAnglesHint.x
      value: 0
      objectReference: {fileID: 0}
    - target: {fileID: 493576, guid: d6389bfdb7e456640b3a45339aac60a4, type: 3}
      propertyPath: m_LocalEulerAnglesHint.y
      value: 0
      objectReference: {fileID: 0}
    - target: {fileID: 493576, guid: d6389bfdb7e456640b3a45339aac60a4, type: 3}
      propertyPath: m_LocalEulerAnglesHint.z
      value: 0
      objectReference: {fileID: 0}
    - target: {fileID: 493576, guid: d6389bfdb7e456640b3a45339aac60a4, type: 3}
      propertyPath: m_LocalScale.x
      value: 5
      objectReference: {fileID: 0}
    - target: {fileID: 493576, guid: d6389bfdb7e456640b3a45339aac60a4, type: 3}
      propertyPath: m_LocalScale.y
      value: 1
      objectReference: {fileID: 0}
    - target: {fileID: 493576, guid: d6389bfdb7e456640b3a45339aac60a4, type: 3}
      propertyPath: m_LocalScale.z
      value: 5
      objectReference: {fileID: 0}
    m_RemovedComponents: []
  m_SourcePrefab: {fileID: 100100000, guid: d6389bfdb7e456640b3a45339aac60a4, type: 3}
--- !u!1001 &6822167629690357054
PrefabInstance:
  m_ObjectHideFlags: 0
  serializedVersion: 2
  m_Modification:
    m_TransformParent: {fileID: 0}
    m_Modifications:
    - target: {fileID: 114530646142549326, guid: 666f1aabfe98dcf4aa95918ec0a4557e,
        type: 3}
      propertyPath: weapon
      value: 
      objectReference: {fileID: 11400000, guid: 0a732c8c9b9f7c543a4714559402d301,
        type: 2}
    - target: {fileID: 3140666345976737196, guid: 666f1aabfe98dcf4aa95918ec0a4557e,
        type: 3}
      propertyPath: m_LocalPosition.x
      value: 0
      objectReference: {fileID: 0}
    - target: {fileID: 3140666345976737196, guid: 666f1aabfe98dcf4aa95918ec0a4557e,
        type: 3}
      propertyPath: m_LocalPosition.y
      value: 0
      objectReference: {fileID: 0}
    - target: {fileID: 3140666345976737196, guid: 666f1aabfe98dcf4aa95918ec0a4557e,
        type: 3}
      propertyPath: m_LocalPosition.z
      value: 0
      objectReference: {fileID: 0}
    - target: {fileID: 3140666345976737196, guid: 666f1aabfe98dcf4aa95918ec0a4557e,
        type: 3}
      propertyPath: m_LocalRotation.x
      value: 0
      objectReference: {fileID: 0}
    - target: {fileID: 3140666345976737196, guid: 666f1aabfe98dcf4aa95918ec0a4557e,
        type: 3}
      propertyPath: m_LocalRotation.y
      value: 0
      objectReference: {fileID: 0}
    - target: {fileID: 3140666345976737196, guid: 666f1aabfe98dcf4aa95918ec0a4557e,
        type: 3}
      propertyPath: m_LocalRotation.z
      value: 0
      objectReference: {fileID: 0}
    - target: {fileID: 3140666345976737196, guid: 666f1aabfe98dcf4aa95918ec0a4557e,
        type: 3}
      propertyPath: m_LocalRotation.w
      value: 1
      objectReference: {fileID: 0}
    - target: {fileID: 3140666345976737196, guid: 666f1aabfe98dcf4aa95918ec0a4557e,
        type: 3}
      propertyPath: m_RootOrder
      value: 0
      objectReference: {fileID: 0}
    - target: {fileID: 3140666345976737196, guid: 666f1aabfe98dcf4aa95918ec0a4557e,
        type: 3}
      propertyPath: m_LocalEulerAnglesHint.x
      value: 0
      objectReference: {fileID: 0}
    - target: {fileID: 3140666345976737196, guid: 666f1aabfe98dcf4aa95918ec0a4557e,
        type: 3}
      propertyPath: m_LocalEulerAnglesHint.y
      value: 0
      objectReference: {fileID: 0}
    - target: {fileID: 3140666345976737196, guid: 666f1aabfe98dcf4aa95918ec0a4557e,
        type: 3}
      propertyPath: m_LocalEulerAnglesHint.z
      value: 0
      objectReference: {fileID: 0}
    - target: {fileID: 3210108622087194482, guid: 666f1aabfe98dcf4aa95918ec0a4557e,
        type: 3}
      propertyPath: m_Name
      value: Fireball Pickup
      objectReference: {fileID: 0}
    m_RemovedComponents: []
  m_SourcePrefab: {fileID: 100100000, guid: 666f1aabfe98dcf4aa95918ec0a4557e, type: 3}
--- !u!4 &8446736630700271762 stripped
Transform:
  m_CorrespondingSourceObject: {fileID: 3140666345976737196, guid: 666f1aabfe98dcf4aa95918ec0a4557e,
    type: 3}
  m_PrefabInstance: {fileID: 6822167629690357054}
  m_PrefabAsset: {fileID: 0}
